#define i_beam_right_mask_width 14
#define i_beam_right_mask_height 17
#define i_beam_right_mask_x_hot 4
#define i_beam_right_mask_y_hot 7
static unsigned char i_beam_right_mask_bits[] = {
   0xef, 0xc1, 0xff, 0xc1, 0xff, 0xc1, 0x7c, 0xc0, 0x38, 0xc0, 0x38, 0xc0,
   0x38, 0xc0, 0x38, 0xc0, 0x38, 0xc0, 0x38, 0xc0, 0x38, 0xc8, 0x7c, 0xdc,
   0xff, 0xff, 0xff, 0xdf, 0xef, 0xff, 0x00, 0xfe, 0x00, 0xd4};
