#define i_beam_data_width 9
#define i_beam_data_height 15
#define i_beam_data_x_hot 4
#define i_beam_data_y_hot 7
static unsigned char i_beam_data_bits[] = {
   0xff, 0x01, 0x11, 0x01, 0xc7, 0x01, 0xef, 0x01, 0xef, 0x01, 0xef, 0x01,
   0xef, 0x01, 0xef, 0x01, 0xef, 0x01, 0xef, 0x01, 0xef, 0x01, 0xef, 0x01,
   0xc7, 0x01, 0x11, 0x01, 0xff, 0x01};
