#define i_beam_minus_data_width 14
#define i_beam_minus_data_height 17
#define i_beam_minus_data_x_hot 4
#define i_beam_minus_data_y_hot 7
static unsigned char i_beam_minus_data_bits[] = {
   0xff, 0x3f, 0x11, 0x3f, 0xc7, 0x3f, 0xef, 0x3f, 0xef, 0x3f, 0xef, 0x3f,
   0xef, 0x3f, 0xef, 0x3f, 0xef, 0x3f, 0xef, 0x3f, 0xef, 0x3f, 0xef, 0x3f,
   0xc7, 0x3f, 0x11, 0x23, 0xff, 0x3f, 0xff, 0x3f, 0xff, 0x3f};
